#N    Time in NanoSeconds
     4 0
 10004 0.7
 20004 0.5
 30004 0.8
 40004 1.2
 50004 1.3
 60004 1.9
 70004 2.3
 80004 2.4
 90004 2.7
100004 3.1
110004 4.4
120004 3.7
130004 4.4
140004 4.2
150004 4.5
160004 5
170004 4.6
180004 4.9
190004 5.9
200004 6.9
210004 6.3
220004 7.1
230004 6.9
240004 6.8
250004 7.5
260004 8
270004 8.3
280004 8.6
290004 9.4
300004 8.9
310004 9.8
320004 9.9
330004 10.1
340004 9.9
350004 10.9
360004 11.2
370004 11
380004 10.7
390004 11.6
400004 11.5
410004 13.1
420004 13.9
430004 13.7
440004 14.4
450004 14.5
460004 14.2
470004 14.9
480004 15.5
490004 14.9
500004 14.6
510004 15.8
520004 16.2
530004 15.7
540004 16.6
550004 17.1
560004 16.6
570004 16.6
580004 17.1
590004 17.1
600004 17.8
610004 17.6
620004 21.7
630004 21
640004 21.4
650004 22
660004 20.6
670004 22
680004 22.7
690004 25
700004 22
710004 22.9
720004 22.5
730004 22
740004 23.5
750004 23.6
760004 23.1
770004 24.2
780004 23.3
790004 23.7
800004 23.3
810004 25
820004 25
830004 25.4
840004 24.1
850004 25.6
860004 24.5
870004 24.8
880004 26.3
890004 27.6
900004 26.8
910004 25.6
920004 32.3
930004 33.1
940004 31.3
950004 31.9
960004 33.5
970004 32.6
980004 33.5
990004 32.5
1000004 33.8
1010004 33.7
1020004 33.3
1030004 34.4
1040004 33.6
1050004 34.1
1060004 33.7
1070004 33.3
1080004 35.5
1090004 34.1
1100004 35.7
1110004 35.1
1120004 37.3
1130004 37.2
1140004 36.6
1150004 35.9
1160004 38
1170004 36.6
1180004 35.8
1190004 37.8
1200004 37.2
1210004 37.9
1220004 37.1
1230004 38.2
1240004 38.5
1250004 38.6
1260004 37.6
1270004 37.9
1280004 38.9
1290004 39.6
1300004 39.9
1310004 40.2
1320004 39.1
1330004 39.8
1340004 40.1
1350004 41.9